[gd_scene load_steps=7 format=3 uid="uid://7m3ofl8avhpv"]

[ext_resource type="Script" path="res://block/noisy_visual.gd" id="1_6rknn"]
[ext_resource type="Material" uid="uid://c2328sw41lq8i" path="res://block/noisy_visual.tres" id="1_7ru08"]

[sub_resource type="FastNoiseLite" id="FastNoiseLite_gh0u2"]

[sub_resource type="NoiseTexture2D" id="NoiseTexture2D_le3vq"]
noise = SubResource("FastNoiseLite_gh0u2")

[sub_resource type="StandardMaterial3D" id="StandardMaterial3D_fmjey"]
albedo_color = Color(0.364706, 0.368627, 0.368627, 1)
albedo_texture = SubResource("NoiseTexture2D_le3vq")

[sub_resource type="BoxMesh" id="BoxMesh_qq17w"]
material = ExtResource("1_7ru08")

[node name="NoisyVisual" type="MeshInstance3D"]
material_override = SubResource("StandardMaterial3D_fmjey")
mesh = SubResource("BoxMesh_qq17w")
script = ExtResource("1_6rknn")
