<?xml version="1.0" encoding="utf-8"?>
<COLLADA xmlns="http://www.collada.org/2005/11/COLLADASchema" version="1.4.1" xmlns:xsi="http://www.w3.org/2001/XMLSchema-instance">
  <asset>
    <contributor>
      <author>Blender User</author>
      <authoring_tool>Blender 2.82.7</authoring_tool>
    </contributor>
    <created>2023-01-29T14:43:59</created>
    <modified>2023-01-29T14:43:59</modified>
    <unit name="meter" meter="1"/>
    <up_axis>Z_UP</up_axis>
  </asset>
  <library_effects>
    <effect id="Material-effect">
      <profile_COMMON>
        <newparam sid="book-surface">
          <surface type="2D">
            <init_from>book</init_from>
          </surface>
        </newparam>
        <newparam sid="book-sampler">
          <sampler2D>
            <source>book-surface</source>
          </sampler2D>
        </newparam>
        <technique sid="common">
          <lambert>
            <emission>
              <color sid="emission">0 0 0 1</color>
            </emission>
            <diffuse>
              <texture texture="book-sampler" texcoord="UVMap"/>
            </diffuse>
            <index_of_refraction>
              <float sid="ior">1.45</float>
            </index_of_refraction>
          </lambert>
        </technique>
      </profile_COMMON>
    </effect>
  </library_effects>
  <library_images>
    <image id="book" name="book">
      <init_from>book.png</init_from>
    </image>
  </library_images>
  <library_materials>
    <material id="Material-material" name="Material">
      <instance_effect url="#Material-effect"/>
    </material>
  </library_materials>
  <library_geometries>
    <geometry id="Cube-mesh" name="Cube">
      <mesh>
        <source id="Cube-mesh-positions">
          <float_array id="Cube-mesh-positions-array" count="72">-0.6290779 -0.7552959 -0.1173843 -0.6290779 -0.7552959 -0.04733496 -0.6290779 0.7547559 -0.1173843 -0.6290779 0.7547559 -0.04733496 0.6361682 -0.7552959 -0.1173843 0.6361682 -0.7552959 -0.04733496 0.6361682 0.7547559 -0.1173843 0.6361682 0.7547559 -0.04733496 -0.5961638 -0.7228422 -0.04733496 -0.5961638 0.7223022 -0.04733496 0.6361683 -0.7228422 -0.04733496 0.6361683 0.7223022 -0.04733496 -0.5961638 -0.7228422 0.05127936 -0.5961638 0.7223022 0.05127936 0.6361683 0.7223022 0.05127936 0.6361683 -0.7228422 0.05127936 -0.6272207 -0.7577924 0.1181873 -0.6272207 -0.7577924 0.0481379 -0.6272207 0.7522595 0.1181873 -0.6272207 0.7522595 0.0481379 0.6380252 -0.7577924 0.1181873 0.6380252 -0.7577924 0.0481379 0.6380252 0.7522595 0.1181873 0.6380252 0.7522595 0.0481379</float_array>
          <technique_common>
            <accessor source="#Cube-mesh-positions-array" count="24" stride="3">
              <param name="X" type="float"/>
              <param name="Y" type="float"/>
              <param name="Z" type="float"/>
            </accessor>
          </technique_common>
        </source>
        <source id="Cube-mesh-normals">
          <float_array id="Cube-mesh-normals-array" count="15">-1 0 0 0 1 0 1 0 0 0 -1 0 0 0 -1</float_array>
          <technique_common>
            <accessor source="#Cube-mesh-normals-array" count="5" stride="3">
              <param name="X" type="float"/>
              <param name="Y" type="float"/>
              <param name="Z" type="float"/>
            </accessor>
          </technique_common>
        </source>
        <source id="Cube-mesh-map-0">
          <float_array id="Cube-mesh-map-0-array" count="168">0.9767117 0.5441044 1 0 1 0.5441044 0.1121467 1 0.1354351 0.5441044 0.1354351 1 0.9068465 0.5441045 0.9301347 0 0.9301349 0.5441044 0.08885824 0.5441044 0.06556993 1 0.06556987 0.5441044 0.4206383 0 0 0.5441043 0 0 0.8740615 0.5441044 0.8412764 0 0.8740614 0 0.9068464 0.5441044 0.8740615 0 0.9068464 0 0 0.5441044 0.03278493 0.9881404 0 0.9881404 0.06556987 0.9881404 0.03278493 0.5441044 0.06556981 0.5441044 0.9534232 0 0.930135 0.5441045 0.9301348 0 0.08885836 1 0.1121466 0.5441044 0.1121467 1 0.9767116 0 0.9534233 0.5441045 0.9534233 0 0.1587234 0.5441044 0.1354351 1 0.1354351 0.5441044 0.8412765 0 0.4206383 0.5441044 0.4206383 0 0.9767117 0.5441044 0.9767116 0 1 0 0.1121467 1 0.1121467 0.5441044 0.1354351 0.5441044 0.9068465 0.5441045 0.9068464 0 0.9301347 0 0.08885824 0.5441044 0.0888583 1 0.06556993 1 0.4206383 0 0.4206383 0.5441045 0 0.5441043 0.8740615 0.5441044 0.8412766 0.5441044 0.8412764 0 0.9068464 0.5441044 0.8740615 0.5441044 0.8740615 0 0 0.5441044 0.03278487 0.5441044 0.03278493 0.9881404 0.06556987 0.9881404 0.03278499 0.9881404 0.03278493 0.5441044 0.9534232 0 0.9534233 0.5441045 0.930135 0.5441045 0.08885836 1 0.0888583 0.5441044 0.1121466 0.5441044 0.9767116 0 0.9767117 0.5441045 0.9534233 0.5441045 0.1587234 0.5441044 0.1587234 1 0.1354351 1 0.8412765 0 0.8412765 0.5441045 0.4206383 0.5441044</float_array>
          <technique_common>
            <accessor source="#Cube-mesh-map-0-array" count="84" stride="2">
              <param name="S" type="float"/>
              <param name="T" type="float"/>
            </accessor>
          </technique_common>
        </source>
        <vertices id="Cube-mesh-vertices">
          <input semantic="POSITION" source="#Cube-mesh-positions"/>
        </vertices>
        <triangles material="Material-material" count="28">
          <input semantic="VERTEX" source="#Cube-mesh-vertices" offset="0"/>
          <input semantic="NORMAL" source="#Cube-mesh-normals" offset="1"/>
          <input semantic="TEXCOORD" source="#Cube-mesh-map-0" offset="2" set="0"/>
          <p>1 0 0 2 0 1 0 0 2 3 1 3 6 1 4 2 1 5 7 2 6 4 2 7 6 2 8 5 3 9 0 3 10 4 3 11 6 4 12 0 4 13 2 4 14 11 2 15 15 2 16 10 2 17 8 0 18 13 0 19 9 0 20 10 3 21 12 3 22 8 3 23 9 1 24 14 1 25 11 1 26 17 2 27 18 2 28 16 2 29 19 3 30 22 3 31 18 3 32 23 0 33 20 0 34 22 0 35 21 1 36 16 1 37 20 1 38 22 4 39 16 4 40 18 4 41 1 0 42 3 0 43 2 0 44 3 1 45 7 1 46 6 1 47 7 2 48 5 2 49 4 2 50 5 3 51 1 3 52 0 3 53 6 4 54 4 4 55 0 4 56 11 2 57 14 2 58 15 2 59 8 0 60 12 0 61 13 0 62 10 3 63 15 3 64 12 3 65 9 1 66 13 1 67 14 1 68 17 2 69 19 2 70 18 2 71 19 3 72 23 3 73 22 3 74 23 0 75 21 0 76 20 0 77 21 1 78 17 1 79 16 1 80 22 4 81 20 4 82 16 4 83</p>
        </triangles>
      </mesh>
    </geometry>
  </library_geometries>
  <library_visual_scenes>
    <visual_scene id="Scene" name="Scene">
      <node id="Cube" name="Cube" type="NODE">
        <matrix sid="transform">1 0 0 0 0 1 0 0 0 0 1 0 0 0 0 1</matrix>
        <instance_geometry url="#Cube-mesh" name="Cube">
          <bind_material>
            <technique_common>
              <instance_material symbol="Material-material" target="#Material-material">
                <bind_vertex_input semantic="UVMap" input_semantic="TEXCOORD" input_set="0"/>
              </instance_material>
            </technique_common>
          </bind_material>
        </instance_geometry>
      </node>
    </visual_scene>
  </library_visual_scenes>
  <scene>
    <instance_visual_scene url="#Scene"/>
  </scene>
</COLLADA>