[gd_scene load_steps=4 format=3 uid="uid://ctfu76bdl8j5f"]

[ext_resource type="PackedScene" uid="uid://cg52knrvhwflu" path="res://stack/guide_book/book.dae" id="1_3ctqf"]
[ext_resource type="Script" path="res://stack/guide_book/stack_guide.gd" id="1_bdson"]

[sub_resource type="BoxShape3D" id="BoxShape3D_pravp"]
size = Vector3(0.257407, 0.0539952, 0.293833)

[node name="stack_guide" type="RigidBody3D"]
collision_layer = 2
collision_mask = 3
script = ExtResource("1_bdson")

[node name="book" parent="." instance=ExtResource("1_3ctqf")]
transform = Transform3D(-0.2, 0, -1.74846e-08, 0, 0.2, 0, 1.74846e-08, 0, -0.2, 0, 0, 0)

[node name="CollisionShape3D" type="CollisionShape3D" parent="."]
shape = SubResource("BoxShape3D_pravp")
