[gd_scene load_steps=7 format=3 uid="uid://b6scso7lfyjkh"]

[ext_resource type="Script" path="res://block/dirt/dirt.gd" id="1_n4364"]
[ext_resource type="PackedScene" uid="uid://7m3ofl8avhpv" path="res://block/noisy_visual.tscn" id="2_14hd3"]

[sub_resource type="FastNoiseLite" id="FastNoiseLite_gh0u2"]

[sub_resource type="NoiseTexture2D" id="NoiseTexture2D_le3vq"]
noise = SubResource("FastNoiseLite_gh0u2")

[sub_resource type="StandardMaterial3D" id="StandardMaterial3D_nehid"]
albedo_color = Color(0.419608, 0.266667, 0.133333, 1)
albedo_texture = SubResource("NoiseTexture2D_le3vq")

[sub_resource type="BoxShape3D" id="BoxShape3D_wene1"]

[node name="Dirt" type="StaticBody3D"]
script = ExtResource("1_n4364")

[node name="NoisyVisual" parent="." instance=ExtResource("2_14hd3")]
layers = 3
material_override = SubResource("StandardMaterial3D_nehid")
color = Color(0.419608, 0.266667, 0.133333, 1)

[node name="CollisionShape3D" type="CollisionShape3D" parent="."]
shape = SubResource("BoxShape3D_wene1")
